%YAML 1.1
%TAG !u! tag:unity3d.com,2011:
--- !u!1 &4919210724875827544
GameObject:
  m_ObjectHideFlags: 0
  m_CorrespondingSourceObject: {fileID: 0}
  m_PrefabInstance: {fileID: 0}
  m_PrefabAsset: {fileID: 0}
  serializedVersion: 6
  m_Component:
  - component: {fileID: 4919210724875827547}
  m_Layer: 0
  m_Name: Base
  m_TagString: Untagged
  m_Icon: {fileID: 0}
  m_NavMeshLayer: 0
  m_StaticEditorFlags: 0
  m_IsActive: 1
--- !u!4 &4919210724875827547
Transform:
  m_ObjectHideFlags: 0
  m_CorrespondingSourceObject: {fileID: 0}
  m_PrefabInstance: {fileID: 0}
  m_PrefabAsset: {fileID: 0}
  m_GameObject: {fileID: 4919210724875827544}
  m_LocalRotation: {x: 0, y: 0, z: 0, w: 1}
  m_LocalPosition: {x: 0, y: 0, z: 0}
  m_LocalScale: {x: 1, y: 1, z: 1}
  m_Children:
  - {fileID: 4923657655902026297}
  m_Father: {fileID: 0}
  m_RootOrder: 0
  m_LocalEulerAnglesHint: {x: 0, y: 0, z: 0}
--- !u!1001 &4919210723912147791
PrefabInstance:
  m_ObjectHideFlags: 0
  serializedVersion: 2
  m_Modification:
    m_TransformParent: {fileID: 4919210724875827547}
    m_Modifications:
    - target: {fileID: 1691321265664528, guid: aecdad9f8d06238489cbe831d176f302, type: 3}
      propertyPath: m_Name
      value: SM_Veh_Part_Cockpit_04
      objectReference: {fileID: 0}
    - target: {fileID: 4737358486264182, guid: aecdad9f8d06238489cbe831d176f302, type: 3}
      propertyPath: m_LocalPosition.x
      value: 0
      objectReference: {fileID: 0}
    - target: {fileID: 4737358486264182, guid: aecdad9f8d06238489cbe831d176f302, type: 3}
      propertyPath: m_LocalPosition.y
      value: 0
      objectReference: {fileID: 0}
    - target: {fileID: 4737358486264182, guid: aecdad9f8d06238489cbe831d176f302, type: 3}
      propertyPath: m_LocalPosition.z
      value: 0
      objectReference: {fileID: 0}
    - target: {fileID: 4737358486264182, guid: aecdad9f8d06238489cbe831d176f302, type: 3}
      propertyPath: m_LocalRotation.x
      value: -0
      objectReference: {fileID: 0}
    - target: {fileID: 4737358486264182, guid: aecdad9f8d06238489cbe831d176f302, type: 3}
      propertyPath: m_LocalRotation.y
      value: -0
      objectReference: {fileID: 0}
    - target: {fileID: 4737358486264182, guid: aecdad9f8d06238489cbe831d176f302, type: 3}
      propertyPath: m_LocalRotation.z
      value: -0
      objectReference: {fileID: 0}
    - target: {fileID: 4737358486264182, guid: aecdad9f8d06238489cbe831d176f302, type: 3}
      propertyPath: m_LocalRotation.w
      value: 1
      objectReference: {fileID: 0}
    - target: {fileID: 4737358486264182, guid: aecdad9f8d06238489cbe831d176f302, type: 3}
      propertyPath: m_RootOrder
      value: 0
      objectReference: {fileID: 0}
    - target: {fileID: 4737358486264182, guid: aecdad9f8d06238489cbe831d176f302, type: 3}
      propertyPath: m_LocalEulerAnglesHint.x
      value: 0
      objectReference: {fileID: 0}
    - target: {fileID: 4737358486264182, guid: aecdad9f8d06238489cbe831d176f302, type: 3}
      propertyPath: m_LocalEulerAnglesHint.y
      value: 0
      objectReference: {fileID: 0}
    - target: {fileID: 4737358486264182, guid: aecdad9f8d06238489cbe831d176f302, type: 3}
      propertyPath: m_LocalEulerAnglesHint.z
      value: 0
      objectReference: {fileID: 0}
    m_RemovedComponents: []
  m_SourcePrefab: {fileID: 100100000, guid: aecdad9f8d06238489cbe831d176f302, type: 3}
--- !u!4 &4923657655902026297 stripped
Transform:
  m_CorrespondingSourceObject: {fileID: 4737358486264182, guid: aecdad9f8d06238489cbe831d176f302,
    type: 3}
  m_PrefabInstance: {fileID: 4919210723912147791}
  m_PrefabAsset: {fileID: 0}
